%YAML 1.1
%TAG !u! tag:unity3d.com,2011:
--- !u!1001 &100100000
Prefab:
  m_ObjectHideFlags: 1
  serializedVersion: 2
  m_Modification:
    m_TransformParent: {fileID: 0}
    m_Modifications: []
    m_RemovedComponents: []
  m_SourcePrefab: {fileID: 0}
  m_RootGameObject: {fileID: 1818299713906102}
  m_IsPrefabAsset: 1
--- !u!1 &1793226813616132
GameObject:
  m_ObjectHideFlags: 0
  m_CorrespondingSourceObject: {fileID: 0}
  m_PrefabInternal: {fileID: 100100000}
  serializedVersion: 6
  m_Component:
  - component: {fileID: 4898354347574192}
  - component: {fileID: 8195094281920856282}
  - component: {fileID: 3664157344731276750}
  m_Layer: 31
  m_Name: Layer1
  m_TagString: Untagged
  m_Icon: {fileID: 0}
  m_NavMeshLayer: 0
  m_StaticEditorFlags: 0
  m_IsActive: 1
--- !u!1 &1818299713906102
GameObject:
  m_ObjectHideFlags: 0
  m_CorrespondingSourceObject: {fileID: 0}
  m_PrefabInternal: {fileID: 100100000}
  serializedVersion: 6
  m_Component:
  - component: {fileID: 4179758137706768}
  - component: {fileID: 2569400267153212004}
  m_Layer: 31
  m_Name: DungeonI
  m_TagString: Untagged
  m_Icon: {fileID: 0}
  m_NavMeshLayer: 0
  m_StaticEditorFlags: 0
  m_IsActive: 1
--- !u!4 &4179758137706768
Transform:
  m_ObjectHideFlags: 1
  m_CorrespondingSourceObject: {fileID: 0}
  m_PrefabInternal: {fileID: 100100000}
  m_GameObject: {fileID: 1818299713906102}
  m_LocalRotation: {x: 0, y: 0, z: 0, w: 1}
  m_LocalPosition: {x: 0, y: 0, z: 0}
  m_LocalScale: {x: 1, y: 1, z: 1}
  m_Children:
  - {fileID: 4898354347574192}
  m_Father: {fileID: 0}
  m_RootOrder: 0
  m_LocalEulerAnglesHint: {x: 0, y: 0, z: 0}
--- !u!4 &4898354347574192
Transform:
  m_ObjectHideFlags: 1
  m_CorrespondingSourceObject: {fileID: 0}
  m_PrefabInternal: {fileID: 100100000}
  m_GameObject: {fileID: 1793226813616132}
  m_LocalRotation: {x: -0, y: -0, z: -0, w: 1}
  m_LocalPosition: {x: 0, y: 0, z: 0}
  m_LocalScale: {x: 1, y: 1, z: 1}
  m_Children: []
  m_Father: {fileID: 4179758137706768}
  m_RootOrder: 0
  m_LocalEulerAnglesHint: {x: 0, y: 0, z: 0}
--- !u!114 &114779044623622090
MonoBehaviour:
  m_ObjectHideFlags: 0
  m_CorrespondingSourceObject: {fileID: 0}
  m_PrefabInternal: {fileID: 0}
  m_GameObject: {fileID: 0}
  m_Enabled: 1
  m_EditorHideFlags: 1
  m_Script: {fileID: 12395, guid: 0000000000000000e000000000000000, type: 0}
  m_Name: Palette Settings
  m_EditorClassIdentifier: 
  cellSizing: 0
--- !u!156049354 &2569400267153212004
Grid:
  m_ObjectHideFlags: 1
  m_CorrespondingSourceObject: {fileID: 0}
  m_PrefabInternal: {fileID: 100100000}
  m_GameObject: {fileID: 1818299713906102}
  m_Enabled: 1
  m_CellSize: {x: 1, y: 1, z: 0}
  m_CellGap: {x: 0, y: 0, z: 0}
  m_CellLayout: 0
  m_CellSwizzle: 0
--- !u!483693784 &3664157344731276750
TilemapRenderer:
  m_ObjectHideFlags: 1
  m_CorrespondingSourceObject: {fileID: 0}
  m_PrefabInternal: {fileID: 100100000}
  m_GameObject: {fileID: 1793226813616132}
  m_Enabled: 0
  m_CastShadows: 0
  m_ReceiveShadows: 0
  m_DynamicOccludee: 0
  m_MotionVectors: 1
  m_LightProbeUsage: 0
  m_ReflectionProbeUsage: 0
  m_RenderingLayerMask: 4294967295
  m_Materials:
  - {fileID: 10754, guid: 0000000000000000f000000000000000, type: 0}
  m_StaticBatchInfo:
    firstSubMesh: 0
    subMeshCount: 0
  m_StaticBatchRoot: {fileID: 0}
  m_ProbeAnchor: {fileID: 0}
  m_LightProbeVolumeOverride: {fileID: 0}
  m_ScaleInLightmap: 1
  m_PreserveUVs: 0
  m_IgnoreNormalsForChartDetection: 0
  m_ImportantGI: 0
  m_StitchLightmapSeams: 0
  m_SelectedEditorRenderState: 0
  m_MinimumChartSize: 4
  m_AutoUVMaxDistance: 0.5
  m_AutoUVMaxAngle: 89
  m_LightmapParameters: {fileID: 0}
  m_SortingLayerID: 0
  m_SortingLayer: 0
  m_SortingOrder: 0
  m_ChunkSize: {x: 32, y: 32, z: 32}
  m_ChunkCullingBounds: {x: 0, y: 0, z: 0}
  m_MaxChunkCount: 16
  m_MaxFrameAge: 16
  m_SortOrder: 0
  m_DetectChunkCullingBounds: 0
  m_MaskInteraction: 0
--- !u!1839735485 &8195094281920856282
Tilemap:
  m_ObjectHideFlags: 1
  m_CorrespondingSourceObject: {fileID: 0}
  m_PrefabInternal: {fileID: 100100000}
  m_GameObject: {fileID: 1793226813616132}
  m_Enabled: 1
  m_Tiles:
  - first: {x: -9, y: -8, z: 0}
    second:
      m_TileIndex: 60
      m_TileSpriteIndex: 59
      m_TileMatrixIndex: 0
      m_TileColorIndex: 0
      m_ObjectToInstantiate: {fileID: 0}
      m_TileFlags: 1
      m_ColliderType: 1
  - first: {x: -8, y: -8, z: 0}
    second:
      m_TileIndex: 59
      m_TileSpriteIndex: 58
      m_TileMatrixIndex: 0
      m_TileColorIndex: 0
      m_ObjectToInstantiate: {fileID: 0}
      m_TileFlags: 1
      m_ColliderType: 1
  - first: {x: -7, y: -8, z: 0}
    second:
      m_TileIndex: 58
      m_TileSpriteIndex: 57
      m_TileMatrixIndex: 0
      m_TileColorIndex: 0
      m_ObjectToInstantiate: {fileID: 0}
      m_TileFlags: 1
      m_ColliderType: 1
  - first: {x: -6, y: -8, z: 0}
    second:
      m_TileIndex: 57
      m_TileSpriteIndex: 56
      m_TileMatrixIndex: 0
      m_TileColorIndex: 0
      m_ObjectToInstantiate: {fileID: 0}
      m_TileFlags: 1
      m_ColliderType: 1
  - first: {x: -9, y: -7, z: 0}
    second:
      m_TileIndex: 56
      m_TileSpriteIndex: 55
      m_TileMatrixIndex: 0
      m_TileColorIndex: 0
      m_ObjectToInstantiate: {fileID: 0}
      m_TileFlags: 1
      m_ColliderType: 1
  - first: {x: -8, y: -7, z: 0}
    second:
      m_TileIndex: 55
      m_TileSpriteIndex: 54
      m_TileMatrixIndex: 0
      m_TileColorIndex: 0
      m_ObjectToInstantiate: {fileID: 0}
      m_TileFlags: 1
      m_ColliderType: 1
  - first: {x: -7, y: -7, z: 0}
    second:
      m_TileIndex: 54
      m_TileSpriteIndex: 53
      m_TileMatrixIndex: 0
      m_TileColorIndex: 0
      m_ObjectToInstantiate: {fileID: 0}
      m_TileFlags: 1
      m_ColliderType: 1
  - first: {x: -6, y: -7, z: 0}
    second:
      m_TileIndex: 53
      m_TileSpriteIndex: 52
      m_TileMatrixIndex: 0
      m_TileColorIndex: 0
      m_ObjectToInstantiate: {fileID: 0}
      m_TileFlags: 1
      m_ColliderType: 1
  - first: {x: -4, y: -7, z: 0}
    second:
      m_TileIndex: 80
      m_TileSpriteIndex: 80
      m_TileMatrixIndex: 0
      m_TileColorIndex: 0
      m_ObjectToInstantiate: {fileID: 0}
      m_TileFlags: 1
      m_ColliderType: 1
  - first: {x: -3, y: -7, z: 0}
    second:
      m_TileIndex: 79
      m_TileSpriteIndex: 79
      m_TileMatrixIndex: 0
      m_TileColorIndex: 0
      m_ObjectToInstantiate: {fileID: 0}
      m_TileFlags: 1
      m_ColliderType: 1
  - first: {x: -2, y: -7, z: 0}
    second:
      m_TileIndex: 78
      m_TileSpriteIndex: 78
      m_TileMatrixIndex: 0
      m_TileColorIndex: 0
      m_ObjectToInstantiate: {fileID: 0}
      m_TileFlags: 1
      m_ColliderType: 1
  - first: {x: -1, y: -7, z: 0}
    second:
      m_TileIndex: 77
      m_TileSpriteIndex: 77
      m_TileMatrixIndex: 0
      m_TileColorIndex: 0
      m_ObjectToInstantiate: {fileID: 0}
      m_TileFlags: 1
      m_ColliderType: 1
  - first: {x: 0, y: -7, z: 0}
    second:
      m_TileIndex: 76
      m_TileSpriteIndex: 76
      m_TileMatrixIndex: 0
      m_TileColorIndex: 0
      m_ObjectToInstantiate: {fileID: 0}
      m_TileFlags: 1
      m_ColliderType: 1
  - first: {x: 1, y: -7, z: 0}
    second:
      m_TileIndex: 75
      m_TileSpriteIndex: 75
      m_TileMatrixIndex: 0
      m_TileColorIndex: 0
      m_ObjectToInstantiate: {fileID: 0}
      m_TileFlags: 1
      m_ColliderType: 1
  - first: {x: -9, y: -6, z: 0}
    second:
      m_TileIndex: 52
      m_TileSpriteIndex: 51
      m_TileMatrixIndex: 0
      m_TileColorIndex: 0
      m_ObjectToInstantiate: {fileID: 0}
      m_TileFlags: 1
      m_ColliderType: 1
  - first: {x: -8, y: -6, z: 0}
    second:
      m_TileIndex: 51
      m_TileSpriteIndex: 48
      m_TileMatrixIndex: 0
      m_TileColorIndex: 0
      m_ObjectToInstantiate: {fileID: 0}
      m_TileFlags: 1
      m_ColliderType: 1
  - first: {x: -7, y: -6, z: 0}
    second:
      m_TileIndex: 50
      m_TileSpriteIndex: 47
      m_TileMatrixIndex: 0
      m_TileColorIndex: 0
      m_ObjectToInstantiate: {fileID: 0}
      m_TileFlags: 1
      m_ColliderType: 1
  - first: {x: -6, y: -6, z: 0}
    second:
      m_TileIndex: 49
      m_TileSpriteIndex: 42
      m_TileMatrixIndex: 0
      m_TileColorIndex: 0
      m_ObjectToInstantiate: {fileID: 0}
      m_TileFlags: 1
      m_ColliderType: 1
  - first: {x: -4, y: -6, z: 0}
    second:
      m_TileIndex: 74
      m_TileSpriteIndex: 74
      m_TileMatrixIndex: 0
      m_TileColorIndex: 0
      m_ObjectToInstantiate: {fileID: 0}
      m_TileFlags: 1
      m_ColliderType: 1
  - first: {x: -3, y: -6, z: 0}
    second:
      m_TileIndex: 67
      m_TileSpriteIndex: 67
      m_TileMatrixIndex: 0
      m_TileColorIndex: 0
      m_ObjectToInstantiate: {fileID: 0}
      m_TileFlags: 1
      m_ColliderType: 1
  - first: {x: -2, y: -6, z: 0}
    second:
      m_TileIndex: 66
      m_TileSpriteIndex: 66
      m_TileMatrixIndex: 0
      m_TileColorIndex: 0
      m_ObjectToInstantiate: {fileID: 0}
      m_TileFlags: 1
      m_ColliderType: 1
  - first: {x: -1, y: -6, z: 0}
    second:
      m_TileIndex: 65
      m_TileSpriteIndex: 65
      m_TileMatrixIndex: 0
      m_TileColorIndex: 0
      m_ObjectToInstantiate: {fileID: 0}
      m_TileFlags: 1
      m_ColliderType: 1
  - first: {x: 0, y: -6, z: 0}
    second:
      m_TileIndex: 64
      m_TileSpriteIndex: 64
      m_TileMatrixIndex: 0
      m_TileColorIndex: 0
      m_ObjectToInstantiate: {fileID: 0}
      m_TileFlags: 1
      m_ColliderType: 1
  - first: {x: 1, y: -6, z: 0}
    second:
      m_TileIndex: 46
      m_TileSpriteIndex: 46
      m_TileMatrixIndex: 0
      m_TileColorIndex: 0
      m_ObjectToInstantiate: {fileID: 0}
      m_TileFlags: 1
      m_ColliderType: 1
  - first: {x: -10, y: -5, z: 0}
    second:
      m_TileIndex: 21
      m_TileSpriteIndex: 21
      m_TileMatrixIndex: 0
      m_TileColorIndex: 0
      m_ObjectToInstantiate: {fileID: 0}
      m_TileFlags: 1
      m_ColliderType: 1
  - first: {x: -9, y: -5, z: 0}
    second:
      m_TileIndex: 20
      m_TileSpriteIndex: 20
      m_TileMatrixIndex: 0
      m_TileColorIndex: 0
      m_ObjectToInstantiate: {fileID: 0}
      m_TileFlags: 1
      m_ColliderType: 1
  - first: {x: -8, y: -5, z: 0}
    second:
      m_TileIndex: 19
      m_TileSpriteIndex: 60
      m_TileMatrixIndex: 0
      m_TileColorIndex: 0
      m_ObjectToInstantiate: {fileID: 0}
      m_TileFlags: 1
      m_ColliderType: 1
  - first: {x: -7, y: -5, z: 0}
    second:
      m_TileIndex: 63
      m_TileSpriteIndex: 63
      m_TileMatrixIndex: 0
      m_TileColorIndex: 0
      m_ObjectToInstantiate: {fileID: 0}
      m_TileFlags: 1
      m_ColliderType: 1
  - first: {x: -6, y: -5, z: 0}
    second:
      m_TileIndex: 81
      m_TileSpriteIndex: 26
      m_TileMatrixIndex: 0
      m_TileColorIndex: 0
      m_ObjectToInstantiate: {fileID: 0}
      m_TileFlags: 1
      m_ColliderType: 1
  - first: {x: -4, y: -5, z: 0}
    second:
      m_TileIndex: 45
      m_TileSpriteIndex: 45
      m_TileMatrixIndex: 0
      m_TileColorIndex: 0
      m_ObjectToInstantiate: {fileID: 0}
      m_TileFlags: 1
      m_ColliderType: 1
  - first: {x: -3, y: -5, z: 0}
    second:
      m_TileIndex: 39
      m_TileSpriteIndex: 39
      m_TileMatrixIndex: 0
      m_TileColorIndex: 0
      m_ObjectToInstantiate: {fileID: 0}
      m_TileFlags: 1
      m_ColliderType: 1
  - first: {x: -10, y: -4, z: 0}
    second:
      m_TileIndex: 12
      m_TileSpriteIndex: 12
      m_TileMatrixIndex: 0
      m_TileColorIndex: 0
      m_ObjectToInstantiate: {fileID: 0}
      m_TileFlags: 1
      m_ColliderType: 1
  - first: {x: -9, y: -4, z: 0}
    second:
      m_TileIndex: 11
      m_TileSpriteIndex: 11
      m_TileMatrixIndex: 0
      m_TileColorIndex: 0
      m_ObjectToInstantiate: {fileID: 0}
      m_TileFlags: 1
      m_ColliderType: 1
  - first: {x: -8, y: -4, z: 0}
    second:
      m_TileIndex: 10
      m_TileSpriteIndex: 41
      m_TileMatrixIndex: 0
      m_TileColorIndex: 0
      m_ObjectToInstantiate: {fileID: 0}
      m_TileFlags: 1
      m_ColliderType: 1
  - first: {x: -7, y: -4, z: 0}
    second:
      m_TileIndex: 38
      m_TileSpriteIndex: 62
      m_TileMatrixIndex: 0
      m_TileColorIndex: 0
      m_ObjectToInstantiate: {fileID: 0}
      m_TileFlags: 1
      m_ColliderType: 1
  - first: {x: -6, y: -4, z: 0}
    second:
      m_TileIndex: 13
      m_TileSpriteIndex: 8
      m_TileMatrixIndex: 0
      m_TileColorIndex: 0
      m_ObjectToInstantiate: {fileID: 0}
      m_TileFlags: 1
      m_ColliderType: 1
  - first: {x: -4, y: -4, z: 0}
    second:
      m_TileIndex: 73
      m_TileSpriteIndex: 73
      m_TileMatrixIndex: 0
      m_TileColorIndex: 0
      m_ObjectToInstantiate: {fileID: 0}
      m_TileFlags: 1
      m_ColliderType: 1
  - first: {x: -3, y: -4, z: 0}
    second:
      m_TileIndex: 72
      m_TileSpriteIndex: 72
      m_TileMatrixIndex: 0
      m_TileColorIndex: 0
      m_ObjectToInstantiate: {fileID: 0}
      m_TileFlags: 1
      m_ColliderType: 1
  - first: {x: -2, y: -4, z: 0}
    second:
      m_TileIndex: 71
      m_TileSpriteIndex: 71
      m_TileMatrixIndex: 0
      m_TileColorIndex: 0
      m_ObjectToInstantiate: {fileID: 0}
      m_TileFlags: 1
      m_ColliderType: 1
  - first: {x: -1, y: -4, z: 0}
    second:
      m_TileIndex: 70
      m_TileSpriteIndex: 70
      m_TileMatrixIndex: 0
      m_TileColorIndex: 0
      m_ObjectToInstantiate: {fileID: 0}
      m_TileFlags: 1
      m_ColliderType: 1
  - first: {x: 0, y: -4, z: 0}
    second:
      m_TileIndex: 69
      m_TileSpriteIndex: 69
      m_TileMatrixIndex: 0
      m_TileColorIndex: 0
      m_ObjectToInstantiate: {fileID: 0}
      m_TileFlags: 1
      m_ColliderType: 1
  - first: {x: 1, y: -4, z: 0}
    second:
      m_TileIndex: 68
      m_TileSpriteIndex: 68
      m_TileMatrixIndex: 0
      m_TileColorIndex: 0
      m_ObjectToInstantiate: {fileID: 0}
      m_TileFlags: 1
      m_ColliderType: 1
  - first: {x: -10, y: -3, z: 0}
    second:
      m_TileIndex: 2
      m_TileSpriteIndex: 14
      m_TileMatrixIndex: 0
      m_TileColorIndex: 0
      m_ObjectToInstantiate: {fileID: 0}
      m_TileFlags: 1
      m_ColliderType: 1
  - first: {x: -9, y: -3, z: 0}
    second:
      m_TileIndex: 1
      m_TileSpriteIndex: 1
      m_TileMatrixIndex: 0
      m_TileColorIndex: 0
      m_ObjectToInstantiate: {fileID: 0}
      m_TileFlags: 1
      m_ColliderType: 1
  - first: {x: -8, y: -3, z: 0}
    second:
      m_TileIndex: 0
      m_TileSpriteIndex: 40
      m_TileMatrixIndex: 0
      m_TileColorIndex: 0
      m_ObjectToInstantiate: {fileID: 0}
      m_TileFlags: 1
      m_ColliderType: 1
  - first: {x: -7, y: -3, z: 0}
    second:
      m_TileIndex: 31
      m_TileSpriteIndex: 38
      m_TileMatrixIndex: 0
      m_TileColorIndex: 0
      m_ObjectToInstantiate: {fileID: 0}
      m_TileFlags: 1
      m_ColliderType: 1
  - first: {x: -4, y: -3, z: 0}
    second:
      m_TileIndex: 37
      m_TileSpriteIndex: 37
      m_TileMatrixIndex: 0
      m_TileColorIndex: 0
      m_ObjectToInstantiate: {fileID: 0}
      m_TileFlags: 1
      m_ColliderType: 1
  - first: {x: -3, y: -3, z: 0}
    second:
      m_TileIndex: 36
      m_TileSpriteIndex: 36
      m_TileMatrixIndex: 0
      m_TileColorIndex: 0
      m_ObjectToInstantiate: {fileID: 0}
      m_TileFlags: 1
      m_ColliderType: 1
  - first: {x: -2, y: -3, z: 0}
    second:
      m_TileIndex: 35
      m_TileSpriteIndex: 35
      m_TileMatrixIndex: 0
      m_TileColorIndex: 0
      m_ObjectToInstantiate: {fileID: 0}
      m_TileFlags: 1
      m_ColliderType: 1
  - first: {x: -1, y: -3, z: 0}
    second:
      m_TileIndex: 34
      m_TileSpriteIndex: 34
      m_TileMatrixIndex: 0
      m_TileColorIndex: 0
      m_ObjectToInstantiate: {fileID: 0}
      m_TileFlags: 1
      m_ColliderType: 1
  - first: {x: 0, y: -3, z: 0}
    second:
      m_TileIndex: 33
      m_TileSpriteIndex: 33
      m_TileMatrixIndex: 0
      m_TileColorIndex: 0
      m_ObjectToInstantiate: {fileID: 0}
      m_TileFlags: 1
      m_ColliderType: 1
  - first: {x: 1, y: -3, z: 0}
    second:
      m_TileIndex: 32
      m_TileSpriteIndex: 81
      m_TileMatrixIndex: 0
      m_TileColorIndex: 0
      m_ObjectToInstantiate: {fileID: 0}
      m_TileFlags: 1
      m_ColliderType: 1
  - first: {x: -10, y: -2, z: 0}
    second:
      m_TileIndex: 3
      m_TileSpriteIndex: 2
      m_TileMatrixIndex: 0
      m_TileColorIndex: 0
      m_ObjectToInstantiate: {fileID: 0}
      m_TileFlags: 1
      m_ColliderType: 1
  - first: {x: -9, y: -2, z: 0}
    second:
      m_TileIndex: 4
      m_TileSpriteIndex: 19
      m_TileMatrixIndex: 0
      m_TileColorIndex: 0
      m_ObjectToInstantiate: {fileID: 0}
      m_TileFlags: 1
      m_ColliderType: 1
  - first: {x: -8, y: -2, z: 0}
    second:
      m_TileIndex: 7
      m_TileSpriteIndex: 25
      m_TileMatrixIndex: 0
      m_TileColorIndex: 0
      m_ObjectToInstantiate: {fileID: 0}
      m_TileFlags: 1
      m_ColliderType: 1
  - first: {x: -7, y: -2, z: 0}
    second:
      m_TileIndex: 14
      m_TileSpriteIndex: 29
      m_TileMatrixIndex: 0
      m_TileColorIndex: 0
      m_ObjectToInstantiate: {fileID: 0}
      m_TileFlags: 1
      m_ColliderType: 1
  - first: {x: -4, y: -2, z: 0}
    second:
      m_TileIndex: 28
      m_TileSpriteIndex: 43
      m_TileMatrixIndex: 0
      m_TileColorIndex: 0
      m_ObjectToInstantiate: {fileID: 0}
      m_TileFlags: 1
      m_ColliderType: 1
  - first: {x: -1, y: -2, z: 0}
    second:
      m_TileIndex: 25
      m_TileSpriteIndex: 32
      m_TileMatrixIndex: 0
      m_TileColorIndex: 0
      m_ObjectToInstantiate: {fileID: 0}
      m_TileFlags: 1
      m_ColliderType: 1
  - first: {x: 8, y: -2, z: 0}
    second:
      m_TileIndex: 26
      m_TileSpriteIndex: 61
      m_TileMatrixIndex: 0
      m_TileColorIndex: 0
      m_ObjectToInstantiate: {fileID: 0}
      m_TileFlags: 1
      m_ColliderType: 1
  - first: {x: -10, y: -1, z: 0}
    second:
      m_TileIndex: 29
      m_TileSpriteIndex: 3
      m_TileMatrixIndex: 0
      m_TileColorIndex: 0
      m_ObjectToInstantiate: {fileID: 0}
      m_TileFlags: 1
      m_ColliderType: 1
  - first: {x: -9, y: -1, z: 0}
    second:
      m_TileIndex: 22
      m_TileSpriteIndex: 22
      m_TileMatrixIndex: 0
      m_TileColorIndex: 0
      m_ObjectToInstantiate: {fileID: 0}
      m_TileFlags: 1
      m_ColliderType: 1
  - first: {x: -8, y: -1, z: 0}
    second:
      m_TileIndex: 30
      m_TileSpriteIndex: 13
      m_TileMatrixIndex: 0
      m_TileColorIndex: 0
      m_ObjectToInstantiate: {fileID: 0}
      m_TileFlags: 1
      m_ColliderType: 1
  - first: {x: -5, y: -1, z: 0}
    second:
      m_TileIndex: 48
      m_TileSpriteIndex: 50
      m_TileMatrixIndex: 0
      m_TileColorIndex: 0
      m_ObjectToInstantiate: {fileID: 0}
      m_TileFlags: 1
      m_ColliderType: 1
  - first: {x: -3, y: -1, z: 0}
    second:
      m_TileIndex: 24
      m_TileSpriteIndex: 24
      m_TileMatrixIndex: 0
      m_TileColorIndex: 0
      m_ObjectToInstantiate: {fileID: 0}
      m_TileFlags: 1
      m_ColliderType: 1
  - first: {x: -2, y: -1, z: 0}
    second:
      m_TileIndex: 23
      m_TileSpriteIndex: 23
      m_TileMatrixIndex: 0
      m_TileColorIndex: 0
      m_ObjectToInstantiate: {fileID: 0}
      m_TileFlags: 1
      m_ColliderType: 1
  - first: {x: 0, y: -1, z: 0}
    second:
      m_TileIndex: 62
      m_TileSpriteIndex: 28
      m_TileMatrixIndex: 0
      m_TileColorIndex: 0
      m_ObjectToInstantiate: {fileID: 0}
      m_TileFlags: 1
      m_ColliderType: 1
  - first: {x: 8, y: -1, z: 0}
    second:
      m_TileIndex: 18
      m_TileSpriteIndex: 4294967295
      m_TileMatrixIndex: 0
      m_TileColorIndex: 0
      m_ObjectToInstantiate: {fileID: 0}
      m_TileFlags: 1
      m_ColliderType: 1
  - first: {x: 9, y: -1, z: 0}
    second:
      m_TileIndex: 17
      m_TileSpriteIndex: 4294967295
      m_TileMatrixIndex: 0
      m_TileColorIndex: 0
      m_ObjectToInstantiate: {fileID: 0}
      m_TileFlags: 1
      m_ColliderType: 1
  - first: {x: -10, y: 0, z: 0}
    second:
      m_TileIndex: 43
      m_TileSpriteIndex: 30
      m_TileMatrixIndex: 0
      m_TileColorIndex: 0
      m_ObjectToInstantiate: {fileID: 0}
      m_TileFlags: 1
      m_ColliderType: 1
  - first: {x: -9, y: 0, z: 0}
    second:
      m_TileIndex: 42
      m_TileSpriteIndex: 44
      m_TileMatrixIndex: 0
      m_TileColorIndex: 0
      m_ObjectToInstantiate: {fileID: 0}
      m_TileFlags: 1
      m_ColliderType: 1
  - first: {x: -8, y: 0, z: 0}
    second:
      m_TileIndex: 41
      m_TileSpriteIndex: 31
      m_TileMatrixIndex: 0
      m_TileColorIndex: 0
      m_ObjectToInstantiate: {fileID: 0}
      m_TileFlags: 1
      m_ColliderType: 1
  - first: {x: -7, y: 0, z: 0}
    second:
      m_TileIndex: 40
      m_TileSpriteIndex: 49
      m_TileMatrixIndex: 0
      m_TileColorIndex: 0
      m_ObjectToInstantiate: {fileID: 0}
      m_TileFlags: 1
      m_ColliderType: 1
  - first: {x: -5, y: 0, z: 0}
    second:
      m_TileIndex: 47
      m_TileSpriteIndex: 27
      m_TileMatrixIndex: 0
      m_TileColorIndex: 0
      m_ObjectToInstantiate: {fileID: 0}
      m_TileFlags: 1
      m_ColliderType: 1
  - first: {x: -3, y: 0, z: 0}
    second:
      m_TileIndex: 16
      m_TileSpriteIndex: 18
      m_TileMatrixIndex: 0
      m_TileColorIndex: 0
      m_ObjectToInstantiate: {fileID: 0}
      m_TileFlags: 1
      m_ColliderType: 1
  - first: {x: -2, y: 0, z: 0}
    second:
      m_TileIndex: 15
      m_TileSpriteIndex: 17
      m_TileMatrixIndex: 0
      m_TileColorIndex: 0
      m_ObjectToInstantiate: {fileID: 0}
      m_TileFlags: 1
      m_ColliderType: 1
  - first: {x: 0, y: 0, z: 0}
    second:
      m_TileIndex: 61
      m_TileSpriteIndex: 16
      m_TileMatrixIndex: 0
      m_TileColorIndex: 0
      m_ObjectToInstantiate: {fileID: 0}
      m_TileFlags: 1
      m_ColliderType: 1
  - first: {x: 8, y: 0, z: 0}
    second:
      m_TileIndex: 9
      m_TileSpriteIndex: 4294967295
      m_TileMatrixIndex: 0
      m_TileColorIndex: 0
      m_ObjectToInstantiate: {fileID: 0}
      m_TileFlags: 1
      m_ColliderType: 1
  - first: {x: 9, y: 0, z: 0}
    second:
      m_TileIndex: 8
      m_TileSpriteIndex: 4294967295
      m_TileMatrixIndex: 0
      m_TileColorIndex: 0
      m_ObjectToInstantiate: {fileID: 0}
      m_TileFlags: 1
      m_ColliderType: 1
  - first: {x: -5, y: 1, z: 0}
    second:
      m_TileIndex: 27
      m_TileSpriteIndex: 7
      m_TileMatrixIndex: 0
      m_TileColorIndex: 0
      m_ObjectToInstantiate: {fileID: 0}
      m_TileFlags: 1
      m_ColliderType: 1
  - first: {x: -3, y: 1, z: 0}
    second:
      m_TileIndex: 6
      m_TileSpriteIndex: 15
      m_TileMatrixIndex: 0
      m_TileColorIndex: 0
      m_ObjectToInstantiate: {fileID: 0}
      m_TileFlags: 1
      m_ColliderType: 1
  - first: {x: -2, y: 1, z: 0}
    second:
      m_TileIndex: 5
      m_TileSpriteIndex: 10
      m_TileMatrixIndex: 0
      m_TileColorIndex: 0
      m_ObjectToInstantiate: {fileID: 0}
      m_TileFlags: 1
      m_ColliderType: 1
  - first: {x: 0, y: 1, z: 0}
    second:
      m_TileIndex: 44
      m_TileSpriteIndex: 9
      m_TileMatrixIndex: 0
      m_TileColorIndex: 0
      m_ObjectToInstantiate: {fileID: 0}
      m_TileFlags: 1
      m_ColliderType: 1
  m_AnimatedTiles: {}
  m_TileAssetArray:
  - m_RefCount: 1
    m_Data: {fileID: 11400000, guid: 73c9c8df96885854c91f29290e34b3c8, type: 2}
  - m_RefCount: 1
    m_Data: {fileID: 11400000, guid: 0a08f8c16ed9aca4d9ae05465dc4242f, type: 2}
  - m_RefCount: 1
    m_Data: {fileID: 11400000, guid: 3aedbd38dc2d5aa418bb0d4beddfadee, type: 2}
  - m_RefCount: 1
    m_Data: {fileID: 11400000, guid: 0ecd15cc61626c64f9a502f685a8ab23, type: 2}
  - m_RefCount: 1
    m_Data: {fileID: 11400000, guid: c70195f18b55d0d4bb49616ee3d7ca20, type: 2}
  - m_RefCount: 1
    m_Data: {fileID: 11400000, guid: a8a4dcebdc37a624e87c374d16d05327, type: 2}
  - m_RefCount: 1
    m_Data: {fileID: 11400000, guid: 71a7e6c20885e404f844956758f1907b, type: 2}
  - m_RefCount: 1
    m_Data: {fileID: 11400000, guid: d8af6368d3aac7b45a263c0f0d8d1120, type: 2}
  - m_RefCount: 1
    m_Data: {fileID: 11400000, guid: da55273a310b4e042967d7c4ab7ad19a, type: 2}
  - m_RefCount: 1
    m_Data: {fileID: 11400000, guid: 327c0988bf9a26148b9b33d5a848dc36, type: 2}
  - m_RefCount: 1
    m_Data: {fileID: 11400000, guid: 2cafbbc5258927a4e97248f4728351f7, type: 2}
  - m_RefCount: 1
    m_Data: {fileID: 11400000, guid: 84a2556cba60047439a4960bb52e0354, type: 2}
  - m_RefCount: 1
    m_Data: {fileID: 11400000, guid: 093cbb634a375c54e96b851877a786f8, type: 2}
  - m_RefCount: 1
    m_Data: {fileID: 11400000, guid: cab0e6e7ab6e37c4d9c0cd55806155d0, type: 2}
  - m_RefCount: 1
    m_Data: {fileID: 11400000, guid: 685088bfb4d8c8642af26a4a07aca2ff, type: 2}
  - m_RefCount: 1
    m_Data: {fileID: 11400000, guid: e902723efb7aef342b617498cbf93b2c, type: 2}
  - m_RefCount: 1
    m_Data: {fileID: 11400000, guid: b31363d1c6e9d5f4784ecb467f55e9a2, type: 2}
  - m_RefCount: 1
    m_Data: {fileID: 11400000, guid: 47e15879be45a7148894ca4995884af0, type: 2}
  - m_RefCount: 1
    m_Data: {fileID: 11400000, guid: 09fdf3853aa5bff4c9cf8dec8960d78a, type: 2}
  - m_RefCount: 1
    m_Data: {fileID: 11400000, guid: 98edf2715496aea4ebd19033a0e77940, type: 2}
  - m_RefCount: 1
    m_Data: {fileID: 11400000, guid: 3b31ce500c43ab9439bb7764a5fde644, type: 2}
  - m_RefCount: 1
    m_Data: {fileID: 11400000, guid: b3bacdbc3437d1140b717412cc2e7368, type: 2}
  - m_RefCount: 1
    m_Data: {fileID: 11400000, guid: 69546dcbd8f530540a27074508e51433, type: 2}
  - m_RefCount: 1
    m_Data: {fileID: 11400000, guid: 370df70ed8a55d0498b4ebd4f963dadc, type: 2}
  - m_RefCount: 1
    m_Data: {fileID: 11400000, guid: d7426d73c7306dd4db58e06413c9a4e0, type: 2}
  - m_RefCount: 1
    m_Data: {fileID: 11400000, guid: c55a481952283734c8edf070667af223, type: 2}
  - m_RefCount: 1
    m_Data: {fileID: 11400000, guid: 51c8bb6f3e15647478d4d826cf79b901, type: 2}
  - m_RefCount: 1
    m_Data: {fileID: 11400000, guid: 1b35d237bf0e2c343adf3ecf1ce587c7, type: 2}
  - m_RefCount: 1
    m_Data: {fileID: 11400000, guid: 00609f64329172a4da62eb6f9f941302, type: 2}
  - m_RefCount: 1
    m_Data: {fileID: 11400000, guid: 5ee73e5f0f4cfce45b1f0130c93558bd, type: 2}
  - m_RefCount: 1
    m_Data: {fileID: 11400000, guid: 86cd319ccefd69447a4eb7a54f77dd9c, type: 2}
  - m_RefCount: 1
    m_Data: {fileID: 11400000, guid: 4a0e7c10b62d5ee45957fa4025386cb2, type: 2}
  - m_RefCount: 1
    m_Data: {fileID: 11400000, guid: edf533ca93092074283c1d768d612f74, type: 2}
  - m_RefCount: 1
    m_Data: {fileID: 11400000, guid: fbbb386e414a7c240ab840f2555ad797, type: 2}
  - m_RefCount: 1
    m_Data: {fileID: 11400000, guid: dd4b82a445b007f479fc5da9fdd19e62, type: 2}
  - m_RefCount: 1
    m_Data: {fileID: 11400000, guid: 54b9f57a2b62515438d46a39a059a4fc, type: 2}
  - m_RefCount: 1
    m_Data: {fileID: 11400000, guid: 0423195753383224b9b2cbdf2d82553b, type: 2}
  - m_RefCount: 1
    m_Data: {fileID: 11400000, guid: 657023d9df06ae54c98803363d29e1c1, type: 2}
  - m_RefCount: 1
    m_Data: {fileID: 11400000, guid: 83eeb7b2c39176c47b2cdef295ae3fe2, type: 2}
  - m_RefCount: 1
    m_Data: {fileID: 11400000, guid: 2c6f3f9e532844548a6ad4d1a2ebee79, type: 2}
  - m_RefCount: 1
    m_Data: {fileID: 11400000, guid: 02072dcacb1decc44b4eda10de39cda1, type: 2}
  - m_RefCount: 1
    m_Data: {fileID: 11400000, guid: d437fee45bb23b5408460da07fdacc92, type: 2}
  - m_RefCount: 1
    m_Data: {fileID: 11400000, guid: 843cd30509a44754085154a70a7aecec, type: 2}
  - m_RefCount: 1
    m_Data: {fileID: 11400000, guid: 7993d188cb7b6e34b854e2b6dc52df72, type: 2}
  - m_RefCount: 1
    m_Data: {fileID: 11400000, guid: d96656df4d201754db19572541fa8eb3, type: 2}
  - m_RefCount: 1
    m_Data: {fileID: 11400000, guid: cc8115105d737ba419432b3c6af2da24, type: 2}
  - m_RefCount: 1
    m_Data: {fileID: 11400000, guid: 31b4ef59cde5c8d429cc88df8531c1ec, type: 2}
  - m_RefCount: 1
    m_Data: {fileID: 11400000, guid: 8f8b4e5764e51ae4cafc8e02d555a44d, type: 2}
  - m_RefCount: 1
    m_Data: {fileID: 11400000, guid: c9f070368213dfc409b5efc6e8043bbe, type: 2}
  - m_RefCount: 1
    m_Data: {fileID: 11400000, guid: 7595a4e18f9c636468a170754f9c8d52, type: 2}
  - m_RefCount: 1
    m_Data: {fileID: 11400000, guid: 26a2dc4ac25f03546b559f7f22aa7cfd, type: 2}
  - m_RefCount: 1
    m_Data: {fileID: 11400000, guid: bcd4cc6f994ba4149a8e140e8cdfcb2b, type: 2}
  - m_RefCount: 1
    m_Data: {fileID: 11400000, guid: 5cbf15877c59ba0409a7e6b959f5e5af, type: 2}
  - m_RefCount: 1
    m_Data: {fileID: 11400000, guid: a3314e5e2f3896940879a5ef59f7aa46, type: 2}
  - m_RefCount: 1
    m_Data: {fileID: 11400000, guid: 961d78a6ad923904dbcaddf6af356843, type: 2}
  - m_RefCount: 1
    m_Data: {fileID: 11400000, guid: e364dcb10ba23cf46a9dfe3dbc24aecc, type: 2}
  - m_RefCount: 1
    m_Data: {fileID: 11400000, guid: 15ca10e020d96b745ab6aeb141a5cef3, type: 2}
  - m_RefCount: 1
    m_Data: {fileID: 11400000, guid: 52e160cb90de7974bbf9d9f14acaac49, type: 2}
  - m_RefCount: 1
    m_Data: {fileID: 11400000, guid: 98355add86d5c3b488db1259fac6fb55, type: 2}
  - m_RefCount: 1
    m_Data: {fileID: 11400000, guid: 88cf5493d03f0514ab037b508d3260ae, type: 2}
  - m_RefCount: 1
    m_Data: {fileID: 11400000, guid: 5d83ad1f3a541744588aab7afadd2f0e, type: 2}
  - m_RefCount: 1
    m_Data: {fileID: 11400000, guid: e832b2091b8b6f44e85ab2c60c89933a, type: 2}
  - m_RefCount: 1
    m_Data: {fileID: 11400000, guid: 90f5098c9a6307a469ce0838cf175305, type: 2}
  - m_RefCount: 1
    m_Data: {fileID: 11400000, guid: 9a1b5cf508cd91848af23a1a49ab5dca, type: 2}
  - m_RefCount: 1
    m_Data: {fileID: 11400000, guid: 2950a404e25a82549976f29206165085, type: 2}
  - m_RefCount: 1
    m_Data: {fileID: 11400000, guid: 5e8b29d2718abfa4681a54cacae0ae09, type: 2}
  - m_RefCount: 1
    m_Data: {fileID: 11400000, guid: b2090b318b3de7e48b7dbb9a54ba5c87, type: 2}
  - m_RefCount: 1
    m_Data: {fileID: 11400000, guid: aeaa3662c4e8bb146912178d2b3a680d, type: 2}
  - m_RefCount: 1
    m_Data: {fileID: 11400000, guid: 76bfb6aeadbc6444a9ed87aedca61c3d, type: 2}
  - m_RefCount: 1
    m_Data: {fileID: 11400000, guid: 08ccb9aae19af454ebed0392f014530f, type: 2}
  - m_RefCount: 1
    m_Data: {fileID: 11400000, guid: 0686f87d0d94e88429e6ff112b8fd2de, type: 2}
  - m_RefCount: 1
    m_Data: {fileID: 11400000, guid: bd17dc33d917ed34fb7b39efa454703c, type: 2}
  - m_RefCount: 1
    m_Data: {fileID: 11400000, guid: d0a74d6f935cce0428ce5ca9997617b8, type: 2}
  - m_RefCount: 1
    m_Data: {fileID: 11400000, guid: 698d250c54d301b4da8b1d6b909a8f4b, type: 2}
  - m_RefCount: 1
    m_Data: {fileID: 11400000, guid: 61f48766bb02cd84c903c086627ee707, type: 2}
  - m_RefCount: 1
    m_Data: {fileID: 11400000, guid: b3ead35e8d8d4704fac5f37b992f724d, type: 2}
  - m_RefCount: 1
    m_Data: {fileID: 11400000, guid: 472574188b0224a42b25bbcf93f4c405, type: 2}
  - m_RefCount: 1
    m_Data: {fileID: 11400000, guid: 8983c6a168b146540953d0c42b8d07fb, type: 2}
  - m_RefCount: 1
    m_Data: {fileID: 11400000, guid: d0a9d479562010e46952728478b3e73c, type: 2}
  - m_RefCount: 1
    m_Data: {fileID: 11400000, guid: 3a8a882897c414545bc7ef0173af767b, type: 2}
  - m_RefCount: 1
    m_Data: {fileID: 11400000, guid: b331f2497c9129d4fa7808f7032dc621, type: 2}
  - m_RefCount: 1
    m_Data: {fileID: 11400000, guid: 799aa6ad5b9533c47abe462a77886055, type: 2}
  m_TileSpriteArray:
  - m_RefCount: 0
    m_Data: {fileID: 0}
  - m_RefCount: 1
    m_Data: {fileID: 21300002, guid: fefb0cfea383aa1458be4d4f1d4ba090, type: 3}
  - m_RefCount: 1
    m_Data: {fileID: 21300014, guid: fefb0cfea383aa1458be4d4f1d4ba090, type: 3}
  - m_RefCount: 1
    m_Data: {fileID: 21300058, guid: fefb0cfea383aa1458be4d4f1d4ba090, type: 3}
  - m_RefCount: 0
    m_Data: {fileID: 0}
  - m_RefCount: 0
    m_Data: {fileID: 0}
  - m_RefCount: 0
    m_Data: {fileID: 0}
  - m_RefCount: 1
    m_Data: {fileID: 21300054, guid: fefb0cfea383aa1458be4d4f1d4ba090, type: 3}
  - m_RefCount: 1
    m_Data: {fileID: 21300024, guid: fefb0cfea383aa1458be4d4f1d4ba090, type: 3}
  - m_RefCount: 1
    m_Data: {fileID: 21300168, guid: fefb0cfea383aa1458be4d4f1d4ba090, type: 3}
  - m_RefCount: 1
    m_Data: {fileID: 21300012, guid: fefb0cfea383aa1458be4d4f1d4ba090, type: 3}
  - m_RefCount: 1
    m_Data: {fileID: 21300020, guid: fefb0cfea383aa1458be4d4f1d4ba090, type: 3}
  - m_RefCount: 1
    m_Data: {fileID: 21300018, guid: fefb0cfea383aa1458be4d4f1d4ba090, type: 3}
  - m_RefCount: 1
    m_Data: {fileID: 21300060, guid: fefb0cfea383aa1458be4d4f1d4ba090, type: 3}
  - m_RefCount: 1
    m_Data: {fileID: 21300000, guid: fefb0cfea383aa1458be4d4f1d4ba090, type: 3}
  - m_RefCount: 1
    m_Data: {fileID: 21300010, guid: fefb0cfea383aa1458be4d4f1d4ba090, type: 3}
  - m_RefCount: 1
    m_Data: {fileID: 21300174, guid: fefb0cfea383aa1458be4d4f1d4ba090, type: 3}
  - m_RefCount: 1
    m_Data: {fileID: 21300030, guid: fefb0cfea383aa1458be4d4f1d4ba090, type: 3}
  - m_RefCount: 1
    m_Data: {fileID: 21300028, guid: fefb0cfea383aa1458be4d4f1d4ba090, type: 3}
  - m_RefCount: 1
    m_Data: {fileID: 21300026, guid: fefb0cfea383aa1458be4d4f1d4ba090, type: 3}
  - m_RefCount: 1
    m_Data: {fileID: 21300040, guid: fefb0cfea383aa1458be4d4f1d4ba090, type: 3}
  - m_RefCount: 1
    m_Data: {fileID: 21300038, guid: fefb0cfea383aa1458be4d4f1d4ba090, type: 3}
  - m_RefCount: 1
    m_Data: {fileID: 21300044, guid: fefb0cfea383aa1458be4d4f1d4ba090, type: 3}
  - m_RefCount: 1
    m_Data: {fileID: 21300048, guid: fefb0cfea383aa1458be4d4f1d4ba090, type: 3}
  - m_RefCount: 1
    m_Data: {fileID: 21300046, guid: fefb0cfea383aa1458be4d4f1d4ba090, type: 3}
  - m_RefCount: 1
    m_Data: {fileID: 21300008, guid: fefb0cfea383aa1458be4d4f1d4ba090, type: 3}
  - m_RefCount: 1
    m_Data: {fileID: 21300240, guid: fefb0cfea383aa1458be4d4f1d4ba090, type: 3}
  - m_RefCount: 1
    m_Data: {fileID: 21300104, guid: fefb0cfea383aa1458be4d4f1d4ba090, type: 3}
  - m_RefCount: 1
    m_Data: {fileID: 21300088, guid: fefb0cfea383aa1458be4d4f1d4ba090, type: 3}
  - m_RefCount: 1
    m_Data: {fileID: 21300006, guid: fefb0cfea383aa1458be4d4f1d4ba090, type: 3}
  - m_RefCount: 1
    m_Data: {fileID: 21300080, guid: fefb0cfea383aa1458be4d4f1d4ba090, type: 3}
  - m_RefCount: 1
    m_Data: {fileID: 21300084, guid: fefb0cfea383aa1458be4d4f1d4ba090, type: 3}
  - m_RefCount: 1
    m_Data: {fileID: 21300056, guid: fefb0cfea383aa1458be4d4f1d4ba090, type: 3}
  - m_RefCount: 1
    m_Data: {fileID: 21300072, guid: fefb0cfea383aa1458be4d4f1d4ba090, type: 3}
  - m_RefCount: 1
    m_Data: {fileID: 21300070, guid: fefb0cfea383aa1458be4d4f1d4ba090, type: 3}
  - m_RefCount: 1
    m_Data: {fileID: 21300068, guid: fefb0cfea383aa1458be4d4f1d4ba090, type: 3}
  - m_RefCount: 1
    m_Data: {fileID: 21300066, guid: fefb0cfea383aa1458be4d4f1d4ba090, type: 3}
  - m_RefCount: 1
    m_Data: {fileID: 21300064, guid: fefb0cfea383aa1458be4d4f1d4ba090, type: 3}
  - m_RefCount: 1
    m_Data: {fileID: 21300062, guid: fefb0cfea383aa1458be4d4f1d4ba090, type: 3}
  - m_RefCount: 1
    m_Data: {fileID: 21300238, guid: fefb0cfea383aa1458be4d4f1d4ba090, type: 3}
  - m_RefCount: 1
    m_Data: {fileID: 21300004, guid: fefb0cfea383aa1458be4d4f1d4ba090, type: 3}
  - m_RefCount: 1
    m_Data: {fileID: 21300022, guid: fefb0cfea383aa1458be4d4f1d4ba090, type: 3}
  - m_RefCount: 1
    m_Data: {fileID: 21300102, guid: fefb0cfea383aa1458be4d4f1d4ba090, type: 3}
  - m_RefCount: 1
    m_Data: {fileID: 21300050, guid: fefb0cfea383aa1458be4d4f1d4ba090, type: 3}
  - m_RefCount: 1
    m_Data: {fileID: 21300082, guid: fefb0cfea383aa1458be4d4f1d4ba090, type: 3}
  - m_RefCount: 1
    m_Data: {fileID: 21300078, guid: fefb0cfea383aa1458be4d4f1d4ba090, type: 3}
  - m_RefCount: 1
    m_Data: {fileID: 21300212, guid: fefb0cfea383aa1458be4d4f1d4ba090, type: 3}
  - m_RefCount: 1
    m_Data: {fileID: 21300100, guid: fefb0cfea383aa1458be4d4f1d4ba090, type: 3}
  - m_RefCount: 1
    m_Data: {fileID: 21300098, guid: fefb0cfea383aa1458be4d4f1d4ba090, type: 3}
  - m_RefCount: 1
    m_Data: {fileID: 21300086, guid: fefb0cfea383aa1458be4d4f1d4ba090, type: 3}
  - m_RefCount: 1
    m_Data: {fileID: 21300120, guid: fefb0cfea383aa1458be4d4f1d4ba090, type: 3}
  - m_RefCount: 1
    m_Data: {fileID: 21300096, guid: fefb0cfea383aa1458be4d4f1d4ba090, type: 3}
  - m_RefCount: 1
    m_Data: {fileID: 21300118, guid: fefb0cfea383aa1458be4d4f1d4ba090, type: 3}
  - m_RefCount: 1
    m_Data: {fileID: 21300116, guid: fefb0cfea383aa1458be4d4f1d4ba090, type: 3}
  - m_RefCount: 1
    m_Data: {fileID: 21300114, guid: fefb0cfea383aa1458be4d4f1d4ba090, type: 3}
  - m_RefCount: 1
    m_Data: {fileID: 21300112, guid: fefb0cfea383aa1458be4d4f1d4ba090, type: 3}
  - m_RefCount: 1
    m_Data: {fileID: 21300148, guid: fefb0cfea383aa1458be4d4f1d4ba090, type: 3}
  - m_RefCount: 1
    m_Data: {fileID: 21300146, guid: fefb0cfea383aa1458be4d4f1d4ba090, type: 3}
  - m_RefCount: 1
    m_Data: {fileID: 21300144, guid: fefb0cfea383aa1458be4d4f1d4ba090, type: 3}
  - m_RefCount: 1
    m_Data: {fileID: 21300142, guid: fefb0cfea383aa1458be4d4f1d4ba090, type: 3}
  - m_RefCount: 1
    m_Data: {fileID: 21300036, guid: fefb0cfea383aa1458be4d4f1d4ba090, type: 3}
  - m_RefCount: 1
    m_Data: {fileID: 21300052, guid: fefb0cfea383aa1458be4d4f1d4ba090, type: 3}
  - m_RefCount: 1
    m_Data: {fileID: 21300076, guid: fefb0cfea383aa1458be4d4f1d4ba090, type: 3}
  - m_RefCount: 1
    m_Data: {fileID: 21300182, guid: fefb0cfea383aa1458be4d4f1d4ba090, type: 3}
  - m_RefCount: 1
    m_Data: {fileID: 21300092, guid: fefb0cfea383aa1458be4d4f1d4ba090, type: 3}
  - m_RefCount: 1
    m_Data: {fileID: 21300206, guid: fefb0cfea383aa1458be4d4f1d4ba090, type: 3}
  - m_RefCount: 1
    m_Data: {fileID: 21300090, guid: fefb0cfea383aa1458be4d4f1d4ba090, type: 3}
  - m_RefCount: 1
    m_Data: {fileID: 21300220, guid: fefb0cfea383aa1458be4d4f1d4ba090, type: 3}
  - m_RefCount: 1
    m_Data: {fileID: 21300236, guid: fefb0cfea383aa1458be4d4f1d4ba090, type: 3}
  - m_RefCount: 1
    m_Data: {fileID: 21300234, guid: fefb0cfea383aa1458be4d4f1d4ba090, type: 3}
  - m_RefCount: 1
    m_Data: {fileID: 21300232, guid: fefb0cfea383aa1458be4d4f1d4ba090, type: 3}
  - m_RefCount: 1
    m_Data: {fileID: 21300230, guid: fefb0cfea383aa1458be4d4f1d4ba090, type: 3}
  - m_RefCount: 1
    m_Data: {fileID: 21300228, guid: fefb0cfea383aa1458be4d4f1d4ba090, type: 3}
  - m_RefCount: 1
    m_Data: {fileID: 21300226, guid: fefb0cfea383aa1458be4d4f1d4ba090, type: 3}
  - m_RefCount: 1
    m_Data: {fileID: 21300218, guid: fefb0cfea383aa1458be4d4f1d4ba090, type: 3}
  - m_RefCount: 1
    m_Data: {fileID: 21300214, guid: fefb0cfea383aa1458be4d4f1d4ba090, type: 3}
  - m_RefCount: 1
    m_Data: {fileID: 21300216, guid: fefb0cfea383aa1458be4d4f1d4ba090, type: 3}
  - m_RefCount: 1
    m_Data: {fileID: 21300210, guid: fefb0cfea383aa1458be4d4f1d4ba090, type: 3}
  - m_RefCount: 1
    m_Data: {fileID: 21300208, guid: fefb0cfea383aa1458be4d4f1d4ba090, type: 3}
  - m_RefCount: 1
    m_Data: {fileID: 21300224, guid: fefb0cfea383aa1458be4d4f1d4ba090, type: 3}
  - m_RefCount: 1
    m_Data: {fileID: 21300222, guid: fefb0cfea383aa1458be4d4f1d4ba090, type: 3}
  - m_RefCount: 1
    m_Data: {fileID: 21300074, guid: fefb0cfea383aa1458be4d4f1d4ba090, type: 3}
  m_TileMatrixArray:
  - m_RefCount: 82
    m_Data:
      e00: 1
      e01: 0
      e02: 0
      e03: 0
      e10: 0
      e11: 1
      e12: 0
      e13: 0
      e20: 0
      e21: 0
      e22: 1
      e23: 0
      e30: 0
      e31: 0
      e32: 0
      e33: 1
  m_TileColorArray:
  - m_RefCount: 82
    m_Data: {r: 1, g: 1, b: 1, a: 1}
  m_AnimationFrameRate: 1
  m_Color: {r: 1, g: 1, b: 1, a: 1}
  m_Origin: {x: -12, y: -10, z: 0}
  m_Size: {x: 22, y: 13, z: 1}
  m_TileAnchor: {x: 0.5, y: 0.5, z: 0}
  m_TileOrientation: 0
  m_TileOrientationMatrix:
    e00: 1
    e01: 0
    e02: 0
    e03: 0
    e10: 0
    e11: 1
    e12: 0
    e13: 0
    e20: 0
    e21: 0
    e22: 1
    e23: 0
    e30: 0
    e31: 0
    e32: 0
    e33: 1
